02_clean
…
Before proceeding with any further analysis, we can inspect the amount of variance explained by the first principal components.

pca_prot_fit |>
  tidy(matrix = "eigenvalues")

# A tibble: 83 × 4
      PC std.dev percent cumulative
   <dbl>   <dbl>   <dbl>      <dbl>
 1     1    51.6  0.132       0.132
 2     2    42.1  0.0878      0.220
 3     3    40.3  0.0805      0.300
 4     4    28.9  0.0412      0.342
 5     5    28.3  0.0395      0.381
 6     6    27.0  0.0362      0.417
 7     7    22.9  0.0260      0.443
 8     8    21.5  0.0229      0.466
 9     9    20.1  0.0200      0.486
10    10    19.9  0.0195      0.506
# ℹ 73 more rows
…
In this case, the variance explained is much higher. By selecting proteins that are known to be related to cancer, the amount of variance explained by the first principal components increases considerably. Limiting the columns to data from the PAM50 proteins, PC1 accounts for 39.54% of the variance (compared to 13.2% when using all proteins), and the two first principal components explain more than 50% of the total variance (54,1 %). Moreover, the 10 first principal components account for 88.7% of the variance.

pca_PAM50_fit |>
  tidy(matrix = "eigenvalues")

# A tibble: 33 × 4
      PC std.dev percent cumulative
   <dbl>   <dbl>   <dbl>      <dbl>
 1     1    8.86  0.395       0.395
 2     2    5.38  0.145       0.541
 3     3    4.14  0.0861      0.627
 4     4    3.62  0.0660      0.693
 5     5    3.34  0.0562      0.749
 6     6    2.86  0.0410      0.790
 7     7    2.41  0.0291      0.819
 8     8    2.33  0.0274      0.847
 9     9    2.08  0.0217      0.868
10    10    1.91  0.0183      0.887
# ℹ 23 more rows
…
Since we are taking into account all protemic data, we see a similar situation to 05.02. The variance explained by the two first principal components is very low. The values are very similar to the previous case, with PC1 accounting for 12.69 % of the variance, and PC2 for 21.45%. As before, the ten first principal components are needed to reach 50%.

pca_prot_fit |>
  tidy(matrix = "eigenvalues")

# A tibble: 80 × 4
      PC std.dev percent cumulative
   <dbl>   <dbl>   <dbl>      <dbl>
 1     1    50.7  0.127       0.127
 2     2    42.1  0.0876      0.214
 3     3    40.6  0.0813      0.296
 4     4    29.3  0.0423      0.338
 5     5    27.6  0.0377      0.376
 6     6    26.8  0.0354      0.411
 7     7    23.3  0.0269      0.438
 8     8    21.9  0.0236      0.462
 9     9    20.4  0.0206      0.482
10    10    20.1  0.0200      0.502
# ℹ 70 more rows
…
After dropping the proteins not included in the PAM50 data set, the variance explained increases, as was observed in previous sections. PC1 explains 39.54% of the variance, while PC2 accounts for 14.59% of the variance.

pca_PAM50_fit |>
  tidy(matrix = "eigenvalues")

# A tibble: 47 × 4
      PC std.dev percent cumulative
   <dbl>   <dbl>   <dbl>      <dbl>
 1     1    9.12  0.397       0.397
 2     2    5.39  0.139       0.535
 3     3    4.05  0.0783      0.614
 4     4    3.76  0.0675      0.681
 5     5    3.43  0.0561      0.737
 6     6    2.89  0.0399      0.777
 7     7    2.47  0.0292      0.807
 8     8    2.37  0.0268      0.833
 9     9    2.13  0.0216      0.855
10    10    1.96  0.0184      0.873
# ℹ 37 more rows
…
