06_analysis_2
…
# Keep the PAM50 protein ID names
PAM50_ref_names <- PAM50_ref |>
  pull(RefSeqProteinID)

# Select only the protein-expression data for the PAM50 gene names
PAM50_data <- prot_clin_ag |>
  select(one_of(PAM50_ref_names))

PAM50_data

# A tibble: 83 × 33
   NP_065178 NP_001035932 NP_077006 NP_004439 NP_061155 NP_060601 NP_057547
       <dbl>        <dbl>     <dbl>     <dbl>     <dbl>     <dbl>     <dbl>
 1     1.91         -4.03     -4.03     -4.42      2.28    3.13      -1.29 
 2     0.516        -4.11     -4.11     -5.19     -1.23   -1.11      -2.62 
 3    -0.205        -4.37     -4.32     -3.10      1.78    0.594     -3.33 
 4     0.813        -5.53     -5.53     -3.13     -1.53   -3.87      -2.32 
 5     0.357        -1.09     -1.09     -2.06     -2.40   -1.67      -0.578
 6     1.58         -2.41     -2.41     -3.32      3.18    0.170     -0.547
 7     1.20         -5.57     -5.57     -5.42      2.93   -0.604     -3.69 
 8     2.26         -4.24     -4.24     -4.89      3.48   -0.0470    -0.547
 9     0.999        -2.99     -3.42     -1.77      2.30    0.452     -1.87 
10    -0.101        -3.42     -3.42     -2.04      1.13    0.355     -1.62 
# ℹ 73 more rows
# ℹ 26 more variables: NP_001784 <dbl>, NP_000917 <dbl>, NP_006836 <dbl>,
#   NP_001062 <dbl>, NP_000415 <dbl>, NP_004314 <dbl>, NP_001116539 <dbl>,
#   NP_058518 <dbl>, NP_058519 <dbl>, NP_005219 <dbl>, NP_002408 <dbl>,
#   NP_001153651 <dbl>, NP_004487 <dbl>, NP_000116 <dbl>, NP_113611 <dbl>,
#   NP_057427 <dbl>, NP_006092 <dbl>, NP_008950 <dbl>, NP_005931 <dbl>,
#   NP_114172 <dbl>, NP_000413 <dbl>, NP_003003 <dbl>, NP_001159403 <dbl>, …
…
