05_analysis_1
…
# A tibble: 3 × 2
  dif_exp     n
  <chr>   <int>
1 Down       84
2 NS       9135
3 Up        115

There are 199 proteins differentially expressed when testing TNBC vs. Non-TNBC. 115 proteins with a higher expression in patients that are TNBC than in patients that are not TNBC, and 84 with a lower expression in patients that are TNBC than in patients that are not TNBC.

We can visualize the volcano plot corresponding to this test:

DEA_TNBC |>
  pluck("estimates")

# A tibble: 9,334 × 7
   Protein      p.value estimate conf.low conf.high q.value dif_exp
   <chr>          <dbl>    <dbl>    <dbl>     <dbl>   <dbl> <chr>  
 1 NP_958782 0.695         0.103   -0.419     0.625  1      NS     
 2 NP_958785 0.688         0.106   -0.418     0.630  1      NS     
 3 NP_958786 0.682         0.108   -0.415     0.632  1      NS     
 4 NP_000436 0.696         0.103   -0.420     0.626  1      NS     
 5 NP_958781 0.689         0.106   -0.418     0.630  1      NS     
 6 NP_958780 0.686         0.107   -0.417     0.630  1      NS     
 7 NP_958783 0.688         0.106   -0.418     0.630  1      NS     
 8 NP_958784 0.688         0.106   -0.418     0.630  1      NS     
 9 NP_112598 0.684         0.222   -0.862     1.31   1      NS     
10 NP_001611 0.00000236   -1.71    -2.38     -1.04   0.0217 Down   
# ℹ 9,324 more rows
…
